{
  "goldConfig": {
    "multiplier": 5.0,
    "power": 2.1
  },
  "upgradeConfig": {
    "multiplier": 5.0,
    "powerBase": 1.08
  },
  "unlockAttackerConfig": {
    "baseCost": 100,
    "multiplier": 10
  }
}